Max size clustering
…
We first see how many people were allocated per bus, and how many buses are needed for this particular event.

# Only reassign saved_clusters_plot when algorithm has run successfully!
saved_clusters_plot <- saved_clusters %>%
  mutate(lat = lat * sdreduced_lat + meanreduced_lat,
         lon = lon * sdreduced_lon + meanreduced_lon)
saved_clusters_plot$clustnum <- paste(as.character(saved_clusters_plot$labels), "-", as.character(saved_clusters_plot$loopn))

# Calculate how many people per bus, and how many buses are needed
saved_clusters_plot %>%
  group_by(clustnum) %>%
  summarise(count = n())

## # A tibble: 126 x 2
##    clustnum count
##    <chr>    <int>
##  1 1 - 4       33
##  2 1 - 5       46
##  3 1 - 8       35
##  4 10 - 7      49
##  5 104 - 4     36
##  6 11 - 5      47
##  7 11 - 7      36
##  8 113 - 4     42
##  9 114 - 3     35
## 10 116 - 2     32
## # ... with 116 more rows
…
